{
    "theSPCs": {
        "5": {
            "nodeID": 10,
            "id": 5,
            "isShow": true,
            "isSelected": false,
            "direction": "up",
            "angle": -1.5707963267948966,
            "RZ": 0,
            "Y": 1,
            "X": 0
        },
        "4": {
            "nodeID": 8,
            "id": 4,
            "isShow": true,
            "isSelected": false,
            "direction": "up",
            "angle": -1.5707963267948966,
            "RZ": 0,
            "Y": 1,
            "X": 1
        },
        "3": {
            "nodeID": 7,
            "id": 3,
            "isShow": true,
            "isSelected": false,
            "direction": "up",
            "angle": -1.5707963267948966,
            "RZ": 0,
            "Y": 1,
            "X": 1
        },
        "2": {
            "nodeID": 4,
            "id": 2,
            "isShow": true,
            "isSelected": false,
            "direction": "up",
            "angle": -1.5707963267948966,
            "RZ": 0,
            "Y": 1,
            "X": 1
        },
        "1": {
            "nodeID": 2,
            "id": 1,
            "isShow": true,
            "isSelected": false,
            "direction": "up",
            "angle": -1.5707963267948966,
            "RZ": 1,
            "Y": 1,
            "X": 1
        }
    },
    "theElements": {
        "6": {
            "geomTransfId": 3,
            "elementLoadsIDs": "",
            "nodeIDs": [
                5,
                10
            ],
            "id": 6,
            "mass": 6839.625720754023,
            "isShow": true,
            "isSelected": false,
            "density": 0.284,
            "I": 833.3333,
            "E": 29000,
            "A": 100,
            "className": "ElasticBeamColumn"
        },
        "5": {
            "geomTransfId": 3,
            "elementLoadsIDs": "",
            "nodeIDs": [
                5,
                8
            ],
            "id": 5,
            "mass": 5112,
            "isShow": true,
            "isSelected": false,
            "density": 0.284,
            "I": 833.3333,
            "E": 29000,
            "A": 100,
            "className": "ElasticBeamColumn"
        },
        "4": {
            "geomTransfId": 3,
            "elementLoadsIDs": "",
            "nodeIDs": [
                6,
                7
            ],
            "id": 4,
            "mass": 5112,
            "isShow": true,
            "isSelected": false,
            "density": 0.284,
            "I": 833.3333,
            "E": 29000,
            "A": 100,
            "className": "ElasticBeamColumn"
        },
        "3": {
            "geomTransfId": 3,
            "elementLoadsIDs": "",
            "nodeIDs": [
                3,
                6
            ],
            "id": 3,
            "mass": 4544,
            "isShow": true,
            "isSelected": false,
            "density": 0.284,
            "I": 833.3333,
            "E": 29000,
            "A": 100,
            "className": "ElasticBeamColumn"
        },
        "2": {
            "geomTransfId": 3,
            "elementLoadsIDs": "",
            "nodeIDs": [
                3,
                4
            ],
            "id": 2,
            "mass": 5112,
            "isShow": true,
            "isSelected": false,
            "density": 0.284,
            "I": 833.3333,
            "E": 29000,
            "A": 100,
            "className": "ElasticBeamColumn"
        },
        "1": {
            "geomTransfId": 3,
            "elementLoadsIDs": "",
            "nodeIDs": [
                1,
                2
            ],
            "id": 1,
            "mass": 5112,
            "isShow": true,
            "isSelected": false,
            "density": 0.284,
            "I": 833.3333,
            "E": 29000,
            "A": 100,
            "className": "ElasticBeamColumn"
        }
    },
    "theNodes": {
        "10": {
            "ajacentNodeIDs": [
                "5"
            ],
            "nodeLoadIDs": "",
            "elementIDs": [
                "6"
            ],
            "id": 10,
            "massRz": 3419.8128603770115,
            "massY": 3419.8128603770115,
            "massX": 3419.8128603770115,
            "connectType": "beam",
            "eleCount": 1,
            "showTag": true,
            "showDeformation": true,
            "showEdge": false,
            "isShow": true,
            "isSelected": false,
            "dispRZ": 0.02504030793466898,
            "dispY": 0,
            "dispX": 13.84072976870041,
            "beforeMoveY": 560,
            "beforeMoveX": 820,
            "Y": 560,
            "X": 820
        },
        "8": {
            "ajacentNodeIDs": [
                "5"
            ],
            "nodeLoadIDs": "",
            "elementIDs": [
                "5"
            ],
            "id": 8,
            "massRz": 2556,
            "massY": 2556,
            "massX": 2556,
            "connectType": "beam",
            "eleCount": 1,
            "showTag": true,
            "showDeformation": true,
            "showEdge": false,
            "isShow": true,
            "isSelected": false,
            "dispRZ": -0.09043134567977791,
            "dispY": 0,
            "dispX": 0,
            "beforeMoveY": 560,
            "beforeMoveX": 660,
            "Y": 560,
            "X": 660
        },
        "7": {
            "ajacentNodeIDs": [
                "6"
            ],
            "nodeLoadIDs": "",
            "elementIDs": [
                "4"
            ],
            "id": 7,
            "massRz": 2556,
            "massY": 2556,
            "massX": 2556,
            "connectType": "beam",
            "eleCount": 1,
            "showTag": true,
            "showDeformation": true,
            "showEdge": false,
            "isShow": true,
            "isSelected": false,
            "dispRZ": -0.03481008380029566,
            "dispY": 0,
            "dispX": 0,
            "beforeMoveY": 560,
            "beforeMoveX": 540,
            "Y": 560,
            "X": 540
        },
        "6": {
            "ajacentNodeIDs": [
                "3",
                "7"
            ],
            "nodeLoadIDs": "",
            "elementIDs": [
                "3",
                "4"
            ],
            "id": 6,
            "massRz": 4828,
            "massY": 4828,
            "massX": 4828,
            "connectType": "beam",
            "eleCount": 2,
            "showTag": true,
            "showDeformation": true,
            "showEdge": false,
            "isShow": true,
            "isSelected": false,
            "dispRZ": -0.00800875715620869,
            "dispY": -0.0657794381943464,
            "dispX": 4.657072835567888,
            "beforeMoveY": 740,
            "beforeMoveX": 540,
            "Y": 740,
            "X": 540
        },
        "5": {
            "ajacentNodeIDs": [
                "8",
                "10"
            ],
            "nodeLoadIDs": [
                "3"
            ],
            "elementIDs": [
                "5",
                "6"
            ],
            "id": 5,
            "massRz": 5975.812860377011,
            "massY": 5975.812860377011,
            "massX": 5975.812860377011,
            "connectType": "beam",
            "eleCount": 2,
            "showTag": true,
            "showDeformation": true,
            "showEdge": false,
            "isShow": true,
            "isSelected": false,
            "dispRZ": -0.04104132066820055,
            "dispY": -0.4867239421500437,
            "dispX": 13.30250809521146,
            "beforeMoveY": 740,
            "beforeMoveX": 660,
            "Y": 740,
            "X": 660
        },
        "4": {
            "ajacentNodeIDs": [
                "3"
            ],
            "nodeLoadIDs": "",
            "elementIDs": [
                "2"
            ],
            "id": 4,
            "massRz": 2556,
            "massY": 2556,
            "massX": 2556,
            "connectType": "beam",
            "eleCount": 1,
            "showTag": true,
            "showDeformation": true,
            "showEdge": false,
            "isShow": true,
            "isSelected": false,
            "dispRZ": -0.03482216185841568,
            "dispY": 0,
            "dispX": 0,
            "beforeMoveY": 560,
            "beforeMoveX": 380,
            "Y": 560,
            "X": 380
        },
        "3": {
            "ajacentNodeIDs": [
                "4",
                "6"
            ],
            "nodeLoadIDs": [
                "2"
            ],
            "elementIDs": [
                "2",
                "3"
            ],
            "id": 3,
            "massRz": 4828,
            "massY": 4828,
            "massX": 4828,
            "connectType": "beam",
            "eleCount": 2,
            "showTag": true,
            "showDeformation": true,
            "showEdge": false,
            "isShow": true,
            "isSelected": false,
            "dispRZ": -0.008014440948265172,
            "dispY": -0.0546567134048161,
            "dispX": 4.659151765177045,
            "beforeMoveY": 740,
            "beforeMoveX": 380,
            "Y": 740,
            "X": 380
        },
        "2": {
            "ajacentNodeIDs": [
                "1"
            ],
            "nodeLoadIDs": "",
            "elementIDs": [
                "1"
            ],
            "id": 2,
            "massRz": 2556,
            "massY": 2556,
            "massX": 2556,
            "connectType": "beam",
            "eleCount": 1,
            "showTag": true,
            "showDeformation": true,
            "showEdge": false,
            "isShow": true,
            "isSelected": false,
            "dispRZ": 0,
            "dispY": 0,
            "dispX": 0,
            "beforeMoveY": 560,
            "beforeMoveX": 180,
            "Y": 560,
            "X": 180
        },
        "1": {
            "ajacentNodeIDs": [
                "2"
            ],
            "nodeLoadIDs": [
                "1"
            ],
            "elementIDs": [
                "1"
            ],
            "id": 1,
            "massRz": 2556,
            "massY": 2556,
            "massX": 2556,
            "connectType": "beam",
            "eleCount": 1,
            "showTag": true,
            "showDeformation": true,
            "showEdge": false,
            "isShow": true,
            "isSelected": false,
            "dispRZ": -0.08032624746073162,
            "dispY": -0.2576324704652903,
            "dispX": 9.634564676713511,
            "beforeMoveY": 740,
            "beforeMoveX": 180,
            "Y": 740,
            "X": 180
        }
    }
}
